<?xml version="1.0" encoding="UTF-8"?>
<svg width="23px" height="23px" viewBox="0 0 23 23" version="1.1" xmlns="http://www.w3.org/2000/svg" xmlns:xlink="http://www.w3.org/1999/xlink">
    <!-- Generator: Sketch 52.6 (67491) - http://www.bohemiancoding.com/sketch -->
    <title>simbolo-de-telefono-de-un-auricular-dentro-de-un-circulo</title>
    <desc>Created with Sketch.</desc>
    <g id="Page-1" stroke="none" stroke-width="1" fill="none" fill-rule="evenodd">
        <g id="Artboard" transform="translate(-78.000000, -465.000000)" fill="#FFFFFF" fill-rule="nonzero">
            <g id="simbolo-de-telefono-de-un-auricular-dentro-de-un-circulo" transform="translate(78.000000, 465.000000)">
                <path d="M11.5000474,0 C5.14920138,0 -4.54747351e-13,5.14918015 -4.54747351e-13,11.5 C-4.54747351e-13,17.850725 5.14920138,23 11.5000474,23 C17.8508934,23 23,17.8506776 23,11.5 C23.0000474,5.14918015 17.8508934,0 11.5000474,0 Z M17.6016685,16.8061536 L16.6765171,17.7316776 C16.5113472,17.8966418 16.0276967,17.9995837 16.0121703,17.9995837 C13.0854058,18.0251167 10.2673733,16.8752737 8.19684408,14.8041464 C6.12064726,12.7263499 4.96969706,9.89771145 5.00060688,6.96051006 C5.00060688,6.95917624 5.10652897,6.48929261 5.27155597,6.32580512 L6.1966597,5.40037637 C6.53519127,5.06020615 7.18548814,4.90648409 7.64103886,5.05891998 L7.83564213,5.12384814 C8.2898593,5.27614112 8.76674684,5.77846501 8.89224357,6.24125084 L9.35760542,7.94958079 C9.48310214,8.41370044 9.31383635,9.07398602 8.97540003,9.41258424 L8.35767992,10.0305212 C8.96416009,12.2761877 10.7258293,14.0385371 12.9714348,14.6466134 L13.5889167,14.0285335 C13.92902,13.6883633 14.5889375,13.5192071 15.0519656,13.644538 L16.7597212,14.1116587 C17.2225112,14.2388474 17.724641,14.7128277 17.8768563,15.1669914 L17.9417717,15.3644435 C18.0926536,15.8187977 17.9401524,16.4690797 17.6016685,16.8061536 Z" id="Shape"></path>
            </g>
        </g>
    </g>
</svg>